{
    "action": "execute",
    "input" : [
        {
            "input_1": {
                "type" :"JSON",
                "dataType": "OBJECT",
                "value":{
                    "first_number": 5
                }
            },
            "input_2": {
                "type" :"JSON",
                "dataType": "OBJECT",
                "value":{
                    "second_number": 10
                }
            }
        }
    ]
}